// Vitest Snapshot v1, https://vitest.dev/guide/snapshot.html

exports[`testing the brand logo component > testing the brand logo UI 1`] = `""`;

exports[`testing the path pick buttons component > testing the path pick buttons UI 1`] = `""`;
